3: Tabular Data – Introduction to R
…
In any case, this might take a moment!

Knowing Your Data

As mentioned, accessing tabular data is a bit more complex than it is for vectors, and in the next section we will learn about convenient tools for this case. However, there are some common built-in tools that R provides for this which you should be at least aware of.

We’ll start with a new dataset from one of the packages you just installed: gapminder This dataset is based on the Gapminder data, and also part of Hans Rosling’s almost 20 year old TED talk.

First we load the data which in this case means to just load the gapminder package to access the dataset with the same name (confusingly so)

library(gapminder)
gapminder

# A tibble: 1,704 × 6
   country     continent  year lifeExp      pop gdpPercap
   <fct>       <fct>     <int>   <dbl>    <int>     <dbl>
 1 Afghanistan Asia       1952    28.8  8425333      779.
 2 Afghanistan Asia       1957    30.3  9240934      821.
 3 Afghanistan Asia       1962    32.0 10267083      853.
 4 Afghanistan Asia       1967    34.0 11537966      836.
 5 Afghanistan Asia       1972    36.1 13079460      740.
 6 Afghanistan Asia       1977    38.4 14880372      786.
 7 Afghanistan Asia       1982    39.9 12881816      978.
 8 Afghanistan Asia       1987    40.8 13867957      852.
 9 Afghanistan Asia       1992    41.7 16317921      649.
10 Afghanistan Asia       1997    41.8 22227415      635.
# ℹ 1,694 more rows
…
