4: The Tidyverse – Introduction to R
…
Remember how it was somewhat awkward to select specific rows and columns from the data.frame before?

For example, here is “country, life expectancy and population for all Asian countries in 1967” in base R syntax:

gapminder[gapminder$continent == "Asia" & gapminder$year == 1967, 
          c("country", "lifeExp", "pop")]

# A tibble: 33 × 3
   country          lifeExp       pop
   <fct>              <dbl>     <int>
 1 Afghanistan         34.0  11537966
 2 Bahrain             59.9    202182
 3 Bangladesh          43.5  62821884
 4 Cambodia            45.4   6960067
 5 China               58.4 754550000
 6 Hong Kong, China    70     3722800
 7 India               47.2 506000000
 8 Indonesia           46.0 109343000
 9 Iran                52.5  26538000
10 Iraq                54.5   8519282
# ℹ 23 more rows

In the tidyverse, or specifically dplyr syntax, we would write it like this:

gapminder |>
  filter(continent == "Asia" & year == 1967) |>
  select(country, lifeExp, pop)

# A tibble: 33 × 3
   country          lifeExp       pop
   <fct>              <dbl>     <int>
 1 Afghanistan         34.0  11537966
 2 Bahrain             59.9    202182
 3 Bangladesh          43.5  62821884
 4 Cambodia            45.4   6960067
 5 China               58.4 754550000
 6 Hong Kong, China    70     3722800
 7 India               47.2 506000000
 8 Indonesia           46.0 109343000
 9 Iran                52.5  26538000
10 Iraq                54.5   8519282
# ℹ 23 more rows
…
All verbs take a data.frame (or tibble, which are almost the same thing) as their first argument, and the most important ones are:

select(): Selects variables (columns) of the dataset (without quoting them with " ")

filter(): Filters the dataset to only the rows matching the condition(s) inside

arrange(): Sorts the dataset by a variable like pop, optionally in decreasing order by using desc() inside.

We start with select(), which is fairly self-explanatory and corresponds to using [ ] with column names or indices as we’ve seen before

gapminder |>
  select(year, country, pop)

# A tibble: 1,704 × 3
    year country          pop
   <int> <fct>          <int>
 1  1952 Afghanistan  8425333
 2  1957 Afghanistan  9240934
 3  1962 Afghanistan 10267083
 4  1967 Afghanistan 11537966
 5  1972 Afghanistan 13079460
 6  1977 Afghanistan 14880372
 7  1982 Afghanistan 12881816
 8  1987 Afghanistan 13867957
 9  1992 Afghanistan 16317921
10  1997 Afghanistan 22227415
# ℹ 1,694 more rows

# If we happen to know the variable indices, this also works
gapminder |>
  select(3, 1, 5)

# A tibble: 1,704 × 3
    year country          pop
   <int> <fct>          <int>
 1  1952 Afghanistan  8425333
 2  1957 Afghanistan  9240934
 3  1962 Afghanistan 10267083
 4  1967 Afghanistan 11537966
 5  1972 Afghanistan 13079460
 6  1977 Afghanistan 14880372
 7  1982 Afghanistan 12881816
 8  1987 Afghanistan 13867957
 9  1992 Afghanistan 16317921
10  1997 Afghanistan 22227415
# ℹ 1,694 more rows

In cases where we pick out individual variables, we often want to sort by one as well:

gapminder |>
  select(year, continent, country) |>
  arrange(year)

# A tibble: 1,704 × 3
    year continent country    
   <int> <fct>     <fct>      
 1  1952 Asia      Afghanistan
 2  1952 Europe    Albania    
 3  1952 Africa    Algeria    
 4  1952 Africa    Angola     
 5  1952 Americas  Argentina  
 6  1952 Oceania   Australia  
 7  1952 Europe    Austria    
 8  1952 Asia      Bahrain    
 9  1952 Asia      Bangladesh 
10  1952 Europe    Belgium    
# ℹ 1,694 more rows

Or sorting descendingly with the desc() helper function:

gapminder |>
  select(year, continent, country) |>
  arrange(desc(year))

# A tibble: 1,704 × 3
    year continent country    
   <int> <fct>     <fct>      
 1  2007 Asia      Afghanistan
 2  2007 Europe    Albania    
 3  2007 Africa    Algeria    
 4  2007 Africa    Angola     
 5  2007 Americas  Argentina  
 6  2007 Oceania   Australia  
 7  2007 Europe    Austria    
 8  2007 Asia      Bahrain    
 9  2007 Asia      Bangladesh 
10  2007 Europe    Belgium    
# ℹ 1,694 more rows

For a numeric variable like year we could also just sort by a negative of the variable:

gapminder |>
  select(year, continent, country) |>
  arrange(-year)

# A tibble: 1,704 × 3
    year continent country    
   <int> <fct>     <fct>      
 1  2007 Asia      Afghanistan
 2  2007 Europe    Albania    
 3  2007 Africa    Algeria    
 4  2007 Africa    Angola     
 5  2007 Americas  Argentina  
 6  2007 Oceania   Australia  
 7  2007 Europe    Austria    
 8  2007 Asia      Bahrain    
 9  2007 Asia      Bangladesh 
10  2007 Europe    Belgium    
# ℹ 1,694 more rows

But desc() has the benefit of also working for character (sorted alphabetically) or factor variables (sorted by their levels), which makes desc() applicable in more cases.

gapminder |>
  select(year, continent, country) |>
  arrange(desc(continent))

# A tibble: 1,704 × 3
    year continent country  
   <int> <fct>     <fct>    
 1  1952 Oceania   Australia
 2  1957 Oceania   Australia
 3  1962 Oceania   Australia
 4  1967 Oceania   Australia
 5  1972 Oceania   Australia
 6  1977 Oceania   Australia
 7  1982 Oceania   Australia
 8  1987 Oceania   Australia
 9  1992 Oceania   Australia
10  1997 Oceania   Australia
# ℹ 1,694 more rows
…
# A tibble: 4 × 6
  country continent  year lifeExp    pop gdpPercap
  <fct>   <fct>     <int>   <dbl>  <int>     <dbl>
1 Iceland Europe     1992    78.8 259012    25144.
2 Iceland Europe     1997    79.0 271192    28061.
3 Iceland Europe     2002    80.5 288030    31163.
4 Iceland Europe     2007    81.8 301931    36181.

As a more advanced example, we can use select()-helper functions to select variables that start with a certain pattern or contain a certain word:

gapminder |>
  select(starts_with("c"))

# A tibble: 1,704 × 2
   country     continent
   <fct>       <fct>    
 1 Afghanistan Asia     
 2 Afghanistan Asia     
 3 Afghanistan Asia     
 4 Afghanistan Asia     
 5 Afghanistan Asia     
 6 Afghanistan Asia     
 7 Afghanistan Asia     
 8 Afghanistan Asia     
 9 Afghanistan Asia     
10 Afghanistan Asia     
# ℹ 1,694 more rows

gapminder |>
  select(contains("gdp"))

# A tibble: 1,704 × 1
   gdpPercap
       <dbl>
 1      779.
 2      821.
 3      853.
 4      836.
 5      740.
 6      786.
 7      978.
 8      852.
 9      649.
10      635.
# ℹ 1,694 more rows

gapminder |>
  select(ends_with("p"))

# A tibble: 1,704 × 3
   lifeExp      pop gdpPercap
     <dbl>    <int>     <dbl>
 1    28.8  8425333      779.
 2    30.3  9240934      821.
 3    32.0 10267083      853.
 4    34.0 11537966      836.
 5    36.1 13079460      740.
 6    38.4 14880372      786.
 7    39.9 12881816      978.
 8    40.8 13867957      852.
 9    41.7 16317921      649.
10    41.8 22227415      635.
# ℹ 1,694 more rows

Your turn

Select the country and life expectancy variables for the year 1952

Subset the dataset to only contain data recorded after 1990

Subset the dataset to only contain data in the 1970s for Ecuador

gapminder |>
  filter(year == 1952) |>
  select(country, lifeExp)

# A tibble: 142 × 2
   country     lifeExp
   <fct>         <dbl>
 1 Afghanistan    28.8
 2 Albania        55.2
 3 Algeria        43.1
 4 Angola         30.0
 5 Argentina      62.5
 6 Australia      69.1
 7 Austria        66.8
 8 Bahrain        50.9
 9 Bangladesh     37.5
10 Belgium        68  
# ℹ 132 more rows

gapminder |>
  filter(year > 1990)

# A tibble: 568 × 6
   country     continent  year lifeExp      pop gdpPercap
   <fct>       <fct>     <int>   <dbl>    <int>     <dbl>
 1 Afghanistan Asia       1992    41.7 16317921      649.
 2 Afghanistan Asia       1997    41.8 22227415      635.
 3 Afghanistan Asia       2002    42.1 25268405      727.
 4 Afghanistan Asia       2007    43.8 31889923      975.
 5 Albania     Europe     1992    71.6  3326498     2497.
 6 Albania     Europe     1997    73.0  3428038     3193.
 7 Albania     Europe     2002    75.7  3508512     4604.
 8 Albania     Europe     2007    76.4  3600523     5937.
 9 Algeria     Africa     1992    67.7 26298373     5023.
10 Algeria     Africa     1997    69.2 29072015     4797.
# ℹ 558 more rows
…
Calculating some summary statistic like the mean or median

mutate(): Creates a new variables, e.g. create pop_m as the variable pop divided by 1,000,000

summarize(): Often used together with group_by(), this summarizes the dataset by calculating something for each group declared by group_by()

group_by(): Declares the dataset to be grouped by the values of variable like continent – we will see examples next!

gapminder <- gapminder |>
  mutate(pop_m = pop / 1e6)

gapminder |>
  mutate(pop = pop / 1e6)

# A tibble: 1,704 × 7
   country     continent  year lifeExp   pop gdpPercap pop_m
   <fct>       <fct>     <int>   <dbl> <dbl>     <dbl> <dbl>
 1 Afghanistan Asia       1952    28.8  8.43      779.  8.43
 2 Afghanistan Asia       1957    30.3  9.24      821.  9.24
 3 Afghanistan Asia       1962    32.0 10.3       853. 10.3 
 4 Afghanistan Asia       1967    34.0 11.5       836. 11.5 
 5 Afghanistan Asia       1972    36.1 13.1       740. 13.1 
 6 Afghanistan Asia       1977    38.4 14.9       786. 14.9 
 7 Afghanistan Asia       1982    39.9 12.9       978. 12.9 
 8 Afghanistan Asia       1987    40.8 13.9       852. 13.9 
 9 Afghanistan Asia       1992    41.7 16.3       649. 16.3 
10 Afghanistan Asia       1997    41.8 22.2       635. 22.2 
# ℹ 1,694 more rows

gapminder |>
  mutate(pop_mean = mean(pop))

# A tibble: 1,704 × 8
   country     continent  year lifeExp      pop gdpPercap pop_m  pop_mean
   <fct>       <fct>     <int>   <dbl>    <int>     <dbl> <dbl>     <dbl>
 1 Afghanistan Asia       1952    28.8  8425333      779.  8.43 29601212.
 2 Afghanistan Asia       1957    30.3  9240934      821.  9.24 29601212.
 3 Afghanistan Asia       1962    32.0 10267083      853. 10.3  29601212.
 4 Afghanistan Asia       1967    34.0 11537966      836. 11.5  29601212.
 5 Afghanistan Asia       1972    36.1 13079460      740. 13.1  29601212.
 6 Afghanistan Asia       1977    38.4 14880372      786. 14.9  29601212.
 7 Afghanistan Asia       1982    39.9 12881816      978. 12.9  29601212.
 8 Afghanistan Asia       1987    40.8 13867957      852. 13.9  29601212.
 9 Afghanistan Asia       1992    41.7 16317921      649. 16.3  29601212.
10 Afghanistan Asia       1997    41.8 22227415      635. 22.2  29601212.
# ℹ 1,694 more rows

gapminder |>
  summarize(
    pop_mean = mean(pop)
  )

# A tibble: 1 × 1
   pop_mean
      <dbl>
1 29601212.

gapminder |>
  group_by(continent)

# A tibble: 1,704 × 7
# Groups:   continent [5]
   country     continent  year lifeExp      pop gdpPercap pop_m
   <fct>       <fct>     <int>   <dbl>    <int>     <dbl> <dbl>
 1 Afghanistan Asia       1952    28.8  8425333      779.  8.43
 2 Afghanistan Asia       1957    30.3  9240934      821.  9.24
 3 Afghanistan Asia       1962    32.0 10267083      853. 10.3 
 4 Afghanistan Asia       1967    34.0 11537966      836. 11.5 
 5 Afghanistan Asia       1972    36.1 13079460      740. 13.1 
 6 Afghanistan Asia       1977    38.4 14880372      786. 14.9 
 7 Afghanistan Asia       1982    39.9 12881816      978. 12.9 
 8 Afghanistan Asia       1987    40.8 13867957      852. 13.9 
 9 Afghanistan Asia       1992    41.7 16317921      649. 16.3 
10 Afghanistan Asia       1997    41.8 22227415      635. 22.2 
# ℹ 1,694 more rows
…
# A tibble: 2 × 3
  country         n num_years
  <fct>       <int>     <int>
1 Australia      12        12
2 New Zealand    12        12

gapminder |>
  mutate(gdpPercap_m = round(gdpPercap / 1e3, digits = 2))

# A tibble: 1,704 × 8
   country     continent  year lifeExp      pop gdpPercap pop_m gdpPercap_m
   <fct>       <fct>     <int>   <dbl>    <int>     <dbl> <dbl>       <dbl>
 1 Afghanistan Asia       1952    28.8  8425333      779.  8.43        0.78
 2 Afghanistan Asia       1957    30.3  9240934      821.  9.24        0.82
 3 Afghanistan Asia       1962    32.0 10267083      853. 10.3         0.85
 4 Afghanistan Asia       1967    34.0 11537966      836. 11.5         0.84
 5 Afghanistan Asia       1972    36.1 13079460      740. 13.1         0.74
 6 Afghanistan Asia       1977    38.4 14880372      786. 14.9         0.79
 7 Afghanistan Asia       1982    39.9 12881816      978. 12.9         0.98
 8 Afghanistan Asia       1987    40.8 13867957      852. 13.9         0.85
 9 Afghanistan Asia       1992    41.7 16317921      649. 16.3         0.65
10 Afghanistan Asia       1997    41.8 22227415      635. 22.2         0.64
# ℹ 1,694 more rows

gapminder |>
  mutate(gdpPercap_m = gdpPercap / 1e6) |>
  mutate(gdpPercap_m = round(gdpPercap_m, digits = 2))

# A tibble: 1,704 × 8
   country     continent  year lifeExp      pop gdpPercap pop_m gdpPercap_m
   <fct>       <fct>     <int>   <dbl>    <int>     <dbl> <dbl>       <dbl>
 1 Afghanistan Asia       1952    28.8  8425333      779.  8.43           0
 2 Afghanistan Asia       1957    30.3  9240934      821.  9.24           0
 3 Afghanistan Asia       1962    32.0 10267083      853. 10.3            0
 4 Afghanistan Asia       1967    34.0 11537966      836. 11.5            0
 5 Afghanistan Asia       1972    36.1 13079460      740. 13.1            0
 6 Afghanistan Asia       1977    38.4 14880372      786. 14.9            0
 7 Afghanistan Asia       1982    39.9 12881816      978. 12.9            0
 8 Afghanistan Asia       1987    40.8 13867957      852. 13.9            0
 9 Afghanistan Asia       1992    41.7 16317921      649. 16.3            0
10 Afghanistan Asia       1997    41.8 22227415      635. 22.2            0
# ℹ 1,694 more rows
…
This might be best explained by example.

Say we want to calculate the difference in life expectancy between 1952 and 2007 for each country and continent, but using the verbs we’ve seen so far we can’t do that with a simple mutate(). We can instead use pivot_wider() which is a function that takes a “long” dataset and pivots it into a “wide” dataset:

gapminder |>
  filter(year %in% c(1952, 2007)) |>
  pivot_wider(
    id_cols = c(country, continent), 
    names_from = year, 
    values_from = lifeExp,
    names_prefix = "lifeExp_"
  ) |>
  mutate(change_life_exp = lifeExp_2007 - lifeExp_1952)

# A tibble: 142 × 5
   country     continent lifeExp_1952 lifeExp_2007 change_life_exp
   <fct>       <fct>            <dbl>        <dbl>           <dbl>
 1 Afghanistan Asia              28.8         43.8            15.0
 2 Albania     Europe            55.2         76.4            21.2
 3 Algeria     Africa            43.1         72.3            29.2
 4 Angola      Africa            30.0         42.7            12.7
 5 Argentina   Americas          62.5         75.3            12.8
 6 Australia   Oceania           69.1         81.2            12.1
 7 Austria     Europe            66.8         79.8            13.0
 8 Bahrain     Asia              50.9         75.6            24.7
 9 Bangladesh  Asia              37.5         64.1            26.6
10 Belgium     Europe            68           79.4            11.4
# ℹ 132 more rows
Combining Things

Sometimes it’s useful to combined datasets by rows or columns:

bind_rows() is for rows, similar to base R’s rbind() but has some advantages

gapminder52 <- gapminder |>
  filter(year == 1952)

gapminder07 <- gapminder |>
  filter(year == 2007)

bind_rows(gapminder52, gapminder07)

# A tibble: 284 × 7
   country     continent  year lifeExp      pop gdpPercap  pop_m
   <fct>       <fct>     <int>   <dbl>    <int>     <dbl>  <dbl>
 1 Afghanistan Asia       1952    28.8  8425333      779.  8.43 
 2 Albania     Europe     1952    55.2  1282697     1601.  1.28 
 3 Algeria     Africa     1952    43.1  9279525     2449.  9.28 
 4 Angola      Africa     1952    30.0  4232095     3521.  4.23 
 5 Argentina   Americas   1952    62.5 17876956     5911. 17.9  
 6 Australia   Oceania    1952    69.1  8691212    10040.  8.69 
 7 Austria     Europe     1952    66.8  6927772     6137.  6.93 
 8 Bahrain     Asia       1952    50.9   120447     9867.  0.120
 9 Bangladesh  Asia       1952    37.5 46886859      684. 46.9  
10 Belgium     Europe     1952    68    8730405     8343.  8.73 
# ℹ 274 more rows
…
For example, here is a way to create to year-specific variables similar to the pivot_wider() example above

gapminder52 <- gapminder |>
  filter(year == 1952) |>
  rename(lifeExp_1952 = lifeExp)

gapminder07 <- gapminder |>
  filter(year == 2007) |>
  select(lifeExp) |>
  rename(lifeExp_2007 = lifeExp)

bind_cols(gapminder52, gapminder07) |>
  select(starts_with("lifeExp"))

# A tibble: 142 × 2
   lifeExp_1952 lifeExp_2007
          <dbl>        <dbl>
 1         28.8         43.8
 2         55.2         76.4
 3         43.1         72.3
 4         30.0         42.7
 5         62.5         75.3
 6         69.1         81.2
 7         66.8         79.8
 8         50.9         75.6
 9         37.5         64.1
10         68           79.4
# ℹ 132 more rows
…
