5: The Whole Game – Introduction to R
…
chemo <- readr::read_csv("data-raw/chemo.csv")

Rows: 200 Columns: 8
── Column specification ────────────────────────────────────────────────────────
Delimiter: ","
chr (3): trt, stage, grade
dbl (5): age, marker, response, death, ttdeath

ℹ Use `spec()` to retrieve the full column specification for this data.
ℹ Specify the column types or set `show_col_types = FALSE` to quiet this message.

chemo

# A tibble: 200 × 8
   trt      age marker stage grade response death ttdeath
   <chr>  <dbl>  <dbl> <chr> <chr>    <dbl> <dbl>   <dbl>
 1 Drug A    23  0.16  T1    II           0     0    24  
 2 Drug B     9  1.11  T2    I            1     0    24  
 3 Drug A    31  0.277 T1    II           0     0    24  
 4 Drug A    NA 10.3   T3    III          1     1    17.6
 5 Drug A    51  2.77  T4    III          1     1    16.4
 6 Drug B    39  0.613 T4    I            0     1    15.6
 7 Drug A    37  0.354 T1    II           0     0    24  
 8 Drug A    32  1.74  T1    I            0     1    18.4
 9 Drug A    31  0.144 T1    II           0     0    24  
10 Drug B    34  0.205 T3    I            0     1    10.5
# ℹ 190 more rows
…
